!
version 15.1
no service timestamps log datetime msec
no service timestamps debug datetime msec
no service password-encryption
!
hostname Router
!
!
!
!
!
!
!
!
no ip cef
no ipv6 cef
!
!
!
!
license udi pid CISCO2811/K9 sn FTX10178CK5-
!
!
!
!
!
!
!
!
!
!
!
spanning-tree mode pvst
!
!
!
!
!
!
interface FastEthernet0/0
 no ip address
 duplex auto
 speed auto
 shutdown
!
interface FastEthernet0/1
 no ip address
 duplex auto
 speed auto
 shutdown
!
interface FastEthernet1/0
 no ip address
!
interface FastEthernet1/0.1
 encapsulation dot1Q 346
 ip address 172.12.117.65 255.255.255.224
!
interface FastEthernet1/0.2
 encapsulation dot1Q 347
 ip address 172.12.117.1 255.255.255.192
!
interface FastEthernet1/0.3
 encapsulation dot1Q 348
 ip address 172.12.116.129 255.255.255.128
!
interface FastEthernet1/0.4
 encapsulation dot1Q 349
 ip address 172.12.117.113 255.255.255.240
!
interface FastEthernet1/0.5
 encapsulation dot1Q 350
 no ip address
!
interface FastEthernet1/0.6
 encapsulation dot1Q 330
 ip address 172.12.112.5 255.255.255.128
!
interface Vlan1
 no ip address
 shutdown
!
ip classless
ip route 0.0.0.0 0.0.0.0 172.12.112.1 
!
ip flow-export version 9
!
!
!
!
!
!
!
!
line con 0
!
line aux 0
!
line vty 0 4
 login
!
!
!
end

